state_id,country_id,state_name
4121,173,Abra
4122,173,Agusan del Norte
4123,173,Agusan del Sur
4124,173,Aklan
4125,173,Albay
4126,173,Antique
4127,173,Apayao
4128,173,Aurora
4129,173,Basilan
4130,173,Bataan
4131,173,Batanes
4132,173,Batangas
4133,173,Benguet
4134,173,Biliran
4135,173,Bohol
4136,173,Bukidnon
4137,173,Bulacan
4138,173,Cagayan
4139,173,Camarines Norte
4140,173,Camarines Sur
4141,173,Camiguin
4142,173,Capiz
4143,173,Catanduanes
4144,173,Cavite
4145,173,Cebu
4146,173,Compostela Valley
4147,173,Cotabato
4148,173,Davao del Norte
4149,173,Davao del Sur
4150,173,Davao Oriental
4151,173,Eastern Samar
4152,173,Guimaras
4153,173,Ifugao
4154,173,Ilocos Norte
4155,173,Ilocos Sur
4156,173,Iloilo
4157,173,Isabela
4158,173,Kalinga
4159,173,La Union
4160,173,Laguna
4161,173,Lanao del Norte
4162,173,Lanao del Sur
4163,173,Leyte
4164,173,Maguindanao
4165,173,Marinduque
4166,173,Masbate
4167,173,Metro Manila
4168,173,Misamis Occidental
4169,173,Misamis Oriental
4170,173,Mountain Province
4171,173,Negros Occidental
4172,173,Negros Oriental
4173,173,Northern Samar
4174,173,Nueva Ecija
4175,173,Nueva Vizcaya
4176,173,Occidental Mindoro
4177,173,Oriental Mindoro
4178,173,Palawan
4179,173,Pampanga
4180,173,Pangasinan
4181,173,Quezon
4182,173,Quirino
4183,173,Rizal
4184,173,Romblon
4185,173,Samar
4186,173,Sarangani
4187,173,Siquijor
4188,173,Sorsogon
4189,173,South Cotabato
4190,173,Southern Leyte
4191,173,Sultan Kudarat
4192,173,Sulu
4193,173,Surigao del Norte
4194,173,Surigao del Sur
4195,173,Tarlac
4196,173,Tawi-Tawi
4197,173,Zambales
4198,173,Zamboanga del Norte
4199,173,Zamboanga del Sur
4200,173,Zamboanga Sibugay
